# EESchema Netlist Version 1.1 created  Fri 20 Jan 2012 10:38:14 AM NZDT
(
 ( /4DF039FA SparkFun-CAP-POL-PTH-5MM C1 220uf
  ( 1 N-000029 )
  ( 2 GND )
 )
 ( /4E00AFC8 SparkFun-CAP-POL-PTH-5MM C2 100uf
  ( 1 /VCC )
  ( 2 GND )
 )
 ( /4E00AFD7 SparkFun-CAP-POL-PTH-5MM C3 10uf
  ( 1 /5V )
  ( 2 GND )
 )
 ( /4EE7FDB1 SparkFun-CAP-PTH-SMALL C4 0.1pF
  ( 1 /5V )
  ( 2 GND )
 )
 ( /4E79B598 SparkFun-CAP-PTH-SMALL C5 0.1pF
  ( 1 /5V )
  ( 2 GND )
 )
 ( /4EE814EE SparkFun-DIODE-1N4001 D1 DIODEPTH
  ( A N-000039 )
  ( C /VCC )
 )
 ( /4EAFF2C5 DIP-8__300_ELL IC1 ATTINY85-P
  ( 1 ? )
  ( 2 /Dx2 )
  ( 3 ? )
  ( 4 GND )
  ( 5 /Ax0 )
  ( 6 ? )
  ( 7 /Adust1 )
  ( 8 /5V )
 )
 ( /4E79B530 DIP-16__300_ELL IC2 74VHC4052_ANALOG_MUX
  ( 1 /Ay0 )
  ( 2 GND )
  ( 3 /A1 )
  ( 4 GND )
  ( 5 GND )
  ( 6 GND )
  ( 7 GND )
  ( 8 GND )
  ( 9 /D6 )
  ( 10 /D5 )
  ( 11 /Ax3 )
  ( 12 /Ax0 )
  ( 13 /A0 )
  ( 14 /Ax1 )
  ( 15 /Ax2 )
  ( 16 /5V )
 )
 ( /4DEF4EE8 SparkFun-1X06_LONGPADS JP1 DustConnector
  ( 1 N-000029 )
  ( 2 GND )
  ( 3 /Dx2 )
  ( 4 GND )
  ( 5 /Adust1 )
  ( 6 /5V )
 )
 ( /4EE8157F SparkFun-1X02_LONGPADS JP2 Power_IN
  ( 1 GND )
  ( 2 N-000039 )
 )
 ( /4E008D1A SparkFun-1X04_LONGPADS JP3 CO_connector
  ( 1 GND )
  ( 2 /5V )
  ( 3 /D3 )
  ( 4 /Ax3 )
 )
 ( /4DEF4F00 SparkFun-1X08_LONGPADS JP4 SDbreakout
  ( 1 /5Vsd )
  ( 2 ? )
  ( 3 GND )
  ( 4 /D13 )
  ( 5 /D12 )
  ( 6 /D11 )
  ( 7 /D10 )
  ( 8 ? )
 )
 ( /4E008CF6 SparkFun-1X04_LONGPADS JP5 CO2_connector
  ( 1 GND )
  ( 2 /VCC )
  ( 3 /Ax2 )
  ( 4 /5V )
 )
 ( /4E014DDE SparkFun-1X04_LONGPADS JP6 ChronoDot
  ( 1 GND )
  ( 2 /5V )
  ( 3 /A5 )
  ( 4 /A4 )
 )
 ( /4E008D67 SparkFun-1X02_LONGPADS JP7 Temperature
  ( 1 GND )
  ( 2 /Ax1 )
 )
 ( /4E00B4CD SparkFun-1X04_LONGPADS JP8 XBee
  ( 1 GND )
  ( 2 /5V )
  ( 3 /RXI )
  ( 4 /TXO )
 )
 ( /4E02BBF4 SparkFun-1X03_LONGPADS JP9 MAXSonar
  ( 1 /Ay0 )
  ( 2 GND )
  ( 3 /5V )
 )
 ( /4E758277 SparkFun-1X03_LONGPADS JP10 PIR
  ( 1 /D4 )
  ( 2 GND )
  ( 3 /VCC )
 )
 ( /4E7A6F64 R3-LARGE_PADS R1 150
  ( 1 /5V )
  ( 2 N-000029 )
 )
 ( /4E7A6F17 R3-LARGE_PADS R2 2.2k
  ( 1 /5V )
  ( 2 /Ax1 )
 )
 ( /4E79DB40 R3-LARGE_PADS R5 10k
  ( 1 /D4 )
  ( 2 /5V )
 )
 ( /4F137F4E R3-LARGE_PADS R6 10k
  ( 1 /Ay0 )
  ( 2 GND )
 )
 ( /4F137F48 R3-LARGE_PADS R7 10k
  ( 1 /Ax3 )
  ( 2 GND )
 )
 ( /4F137F3E R3-LARGE_PADS R8 10k
  ( 1 /Ax2 )
  ( 2 GND )
 )
 ( /4F137F29 R3-LARGE_PADS R10 10k
  ( 1 /Ax0 )
  ( 2 GND )
 )
 ( /4EE80A80 LM78XX U1 LM7805
  ( GND GND )
  ( VI /VCC )
  ( VO /5V )
 )
 ( /4E015F37 Halley-ARDUINO_PRO_MINI U2 ARDUINO_PRO_MINI
  ( A0 /A0 )
  ( A1 /A1 )
  ( A2 ? )
  ( A3 ? )
  ( A4 /A4 )
  ( A5 /A5 )
  ( D2 ? )
  ( D3 /D3 )
  ( D4 /D4 )
  ( D5 /D5 )
  ( D6 /D6 )
  ( D7 ? )
  ( D8 ? )
  ( D9 ? )
  ( D10 /D10 )
  ( D11 /D11 )
  ( D12 /D12 )
  ( D13 /D13 )
  ( GND GND )
  ( GRN ? )
  ( RAW /VCC )
  ( RST ? )
  ( RXI /RXI )
  ( TXO /TXO )
  ( VCC /5Vsd )
 )
)
*
{ Allowed footprints by component:
$component R1
 R?
 SM0603
 SM0805
 R?-*
$endlist
$component R2
 R?
 SM0603
 SM0805
 R?-*
$endlist
$component R5
 R?
 SM0603
 SM0805
 R?-*
$endlist
$component R6
 R?
 SM0603
 SM0805
 R?-*
$endlist
$component R7
 R?
 SM0603
 SM0805
 R?-*
$endlist
$component R8
 R?
 SM0603
 SM0805
 R?-*
$endlist
$component R10
 R?
 SM0603
 SM0805
 R?-*
$endlist
$endfootprintlist
}
